db_name,business_name
case_instance_id,Case ID
proc_inst_id,proc_inst_id
Account Creation_timestamp,Account Creation_timestamp
site_visit_Completed_timestamp,Site Visit Completed timestamp
Referred by CI Analyst to Approver_timestamp,Referred by CI Analyst to Approver_timestamp
Referred by CI Analyst to Approver_message,Referred by CI Analyst to Approver_message
Referred by CI Analyst to Sales_timestamp,Referred by CI Analyst to Sales_timestamp
Referred by CI Analyst to Sales_message,Referred by CI Analyst to Sales_message
Rejected by CI Analyst_timestamp,Rejected by CI Analyst_timestamp
Rejected by CI Analyst_message,Rejected by CI Analyst_message
Site Visit Initiated_timestamp,Site Visit Initiated_timestamp
Site Visit Initiated_message,Site Visit Initiated_message
Referred by CI Analyst to FRM_timestamp,Referred by CI Analyst to FRM_timestamp
Referred by CI Analyst to FRM_message,Referred by CI Analyst to FRM_message
Rejected_by_CI_Approver_timestamp,Rejected_by_CI_Approver_timestamp
Rejected_by_CI_Approver_message,Rejected_by_CI_Approver_message
Referred_by_CI_Approver_to_Analyst_timestamp,Referred by CI Approver to Analyst_timestamp
Referred_by_CI_Approver_to_Analyst_message,Referred by CI Approver to Analyst_message
Approved by CI Approver_timestamp,Approved by CI Approver_timestamp
Approved by CI Approver_message,Approved by CI Approver_message
Referred by CI Approver to Sales_timestamp,Referred by CI Approver to Sales_timestamp
Referred by CI Approver to Sales_message,Referred by CI Approver to Sales_message
Referred by Sales to CI Analyst_timestamp,Referred by Sales to CI Analyst_timestamp
Referred by Sales to CI Analyst_message,Referred by Sales to CI Analyst_message
Customer_Acceptance_timestamp,Customer Acceptance_timestamp
Customer_Acceptance_message,Customer Acceptance_message
Referred by Sales to Sales Head_timestamp,Referred by Sales to Sales Head_timestamp
Referred by Sales to Sales Head_message,Referred by Sales to Sales Head_message
Referred by Sales by Ops_timestamp,Referred by Sales by Ops_timestamp
Referred by Sales by Ops_message,Referred by Sales by Ops_message
Referred by Sales Manager to Sales Agent_timestamp,Referred by Sales Manager to Sales Agent_timestamp
Referred by Sales Manager to Sales Agent_message,Referred by Sales Manager to Sales Agent_message
Referred by Sales Head_timestamp,Referred by Sales Head_timestamp
Referred by Sales Head_message,Referred by Sales Head_message
Approved_by_FRM_timestamp,Approved by FRM_timestamp
Approved_by_FRM_message,Approved by FRM_message
Referred by FRM to CI Approver_timestamp,Referred by FRM to CI Approver_timestamp
Referred by FRM to CI Approver_message,Referred by FRM to CI Approver_message
Referred by FRM to CI Analyst_timestamp,Referred by FRM to CI Analyst_timestamp
Referred by FRM to CI Analyst_message,Referred by FRM to CI Analyst_message
Rejected_by_FRM_timestamp,Rejected by FRM_timestamp
Rejected_by_FRM_message,Rejected by FRM_message
abIvprLowSto,Low STO NTB scorecard
abIvprCons,Construction Industry
abIvprServ,Service Industry
additionalGuarantorEmail_user_bil,Additional Guarantor Email Id
additionalGuarantorMob_user_bil,Additional Guarantor Mobile Number
additionalGuarantorName_user_bil,Additiional Guarantor Name
additionalGuarantorNric_user_bil,Additional Guarantor NRIC
addressLine1Business,Address Line 1 (Registered)
addressLine2Business,Address Line 2 (Registered)
addressLine3Business,Address 3 (Registered)
zipcodeBusiness,Company Zipcode (Registered)
countryBusiness,Country of Registered Address
groupName_user_bil,Group Company name
addressLine1_group_bil,Group Company Address 1
addressLine2_group_bil,Group Company Address 2
postalCode_group_bil,Group Company Address postal code
country_group_bil,Group Company Country
optAddLine1,Operating Address 1
optAddLine2,Operating Address 2
areaOperatingAddress,Operating Address 3
optZipcodeAdd,Operating Address 4
applicationDate,Date of Application
applicationId,Application Id
armCode,eBBs Arm code
bilAmount_system_bil,BIL amount in bundle product
bilRejectedReason,Reject Reasons
bod_ebbs_bil,BOD Limit in eBBs
borrowingEntityGroupCompany_user_bil,Borrower is part of Group of Companies - Y/N
businessVintage,Business Vintage
ccplGuarantor_ccms_bil,Credit Limit in CCMS
citIvprMaxDelq,ci_ivpr_max_delq
companyContactEmail_user_bil,Company Email Address
companyName_user_bil,Company Name/Customer Name
companyUenNumber_user_bil,Unique Entity Number/ ROC/Customer ID
countryOfIncorporation,Country of Incorporation
dateGstDeregistration_iras_bil,Date of Deregistration of Company
dateGstRegistration_iras_bil,Date of Registration of Company
dsr_system_bil,Dsr
emi_system_bil,Approved Monthly Instalment
entityStatus,Company Status
entityType_system_bil,Business Constitution
etbNtb_system_bil,Customer type - ETB/ NTB
expiryDate_dpinfo_bil,Expiry date of Business
exposure_cccis_bil,CCCIS unsecured limit (Sum of all PG's)
incomeFactor,Applied income factor
industrySsic,SSIC Code
industryType,BizNature
ircAmountInstabase,Inward Cheque Return amount
isBilRejected,Whether case has been rejected or not
isiccode_system_bil,ISIC
loanAmount_system_bil,Proposed Loan amount
loanAmount_user_bil,Applied Loan Amount
loanTenure,Proposed Tenure
loanTenure_user_bil,Applied Loan Tenure
mailingAddLine1,Company mailing address Line 1
mailingAddLine2,Company mailing address Line 2
areaBusiness_user_bil,Company mailing address Line 3
mailingAddressCountry,Company mailing address country
mailingPostalCode,Company mailing address pincode
mue,Calculated MUE Amount for borrowing entity
nameKeyDecisionMaker,Key Decision Maker
nar,Calculated NAR Amount for borrowing entity
natureOfBusiness,Main Business Activity of Borrowing Entity
networth_dpinfo_bil,Net Worth of Company for borrowing entity
numOfGuarantors,Number of Guarantors
othersLoanPurpose_user_bil,Other Loan Purpose
otherSources,Source of Fund
pclGuarantor_icm_bil,PCL Limit in eBBs
productType,Product Type
profit_dpinfo_bil,Profit of company
purposeOfLoan_user_bil,Loan Purpose
referal_Agent_ID,Referral Agent ID
referal_Agent_Name,Referral Agent Name
referal_Company_Name,Referral Company Name
Interest_Rate_BIL,Rate of interest for BIL
Interest_Rate_WCL,Rate of interest for WCL
scbLoanApplicationNumber_rls_bil,Loan Number for BIL
repaymentAccountNumber_bil,Disbursement account # (eBBS)
setupLocalCurrentAccount,Disbursement into existing local account- Y/ N
sourceOfFunds_user_bil,Source of Fund
sto,Borrower Income
topUpFlagBil_system_bil,Top Up Flag BIL Yes or No
topUpFlagWcl_system_bil,Top Up Flag WCL Yes or No
tueAmount,TUE/Calculated TUE Amount for borrowing entity
wclAmount_system_bil,WCL Loan Amount portion in case of bundled product
Campaign_Code,Campaign Code for the loan
Campaign_Description,Campaign code description for the loan
txnRefNo_eops_bil,Transaction Reference no for eops
etbNtbFlag,Classification of customer into etb-ntb basis risk policy
scbLoanApplicationNumber_rls_wcl,RLS Loan account number in case of WCL Product
financialStatement_user_bil,Financials statements provided (Y/N)
updatedloaninterestBil,Accepted Interest Rate BIL
updatedloaninterestWcl,Accepted Interest Rate WCL
approverId,Approver ID
approvedByPortalBil,Approver Level (L1/L2/L3)
sID,Validation/Analyst ID
salesId,Sales Id
referalReasons,Rework reasons
gstRegistrationNumber_system_bil,GST Registration number of the company
nameOfShareholder_dpinfo_bil1,Shareholder_Name1
nricOfShareholder_dpinfo_bil1,shareholder_nric1
percentageOfShareholder_dpinfo_bil1,shareholder_percentage1
nameOfShareholder_dpinfo_bil2,shareholder_name2
nricOfShareholder_dpinfo_bil2,shareholder_nric2
percentageOfShareholder_dpinfo_bil2,shareholder_percentage2
nameOfShareholder_dpinfo_bil3,shareholder_name3
nricOfShareholder_dpinfo_bil3,shareholder_nric3
percentageOfShareholder_dpinfo_bil3,shareholder_percentage3
nameOfShareholder_dpinfo_bil4,shareholder_name4
nricOfShareholder_dpinfo_bil4,shareholder_nric4
percentageOfShareholder_dpinfo_bil4,shareholder_percentage4
nameOfShareholder_dpinfo_bil5,shareholder_name5
nricOfShareholder_dpinfo_bil5,shareholder_nric5
percentageOfShareholder_dpinfo_bil5,shareholder_percentage5
nameOfShareholder_dpinfo_bil6,shareholder_name6
nricOfShareholder_dpinfo_bil6,shareholder_nric6
percentageOfShareholder_dpinfo_bil6,shareholder_percentage6
nameOfShareholder_dpinfo_bil7,shareholder_name7
nricOfShareholder_dpinfo_bil7,shareholder_nric7
percentageOfShareholder_dpinfo_bil7,shareholder_percentage7
nameOfShareholder_dpinfo_bil8,shareholder_name8
nricOfShareholder_dpinfo_bil8,shareholder_nric8
percentageOfShareholder_dpinfo_bil8,shareholder_percentage8
nameOfShareholder_dpinfo_bil9,shareholder_name9
nricOfShareholder_dpinfo_bil9,shareholder_nric9
percentageOfShareholder_dpinfo_bil9,shareholder_percentage9
nameOfShareholder_dpinfo_bil10,shareholder_name10
nricOfShareholder_dpinfo_bil10,shareholder_nric10
percentageOfShareholder_dpinfo_bil10,shareholder_percentage10
litigation_status1,Litigation 1 Status for company
litigation_type1,Litigation 1 Type for company
litigation_amount1,Litigation 1 Amount for company
litigation_status2,Litigation 2 Status for company
litigation_type2,Litigation 2 Type for company
litigation_amount2,Litigation 2 Amount for company
litigation_status3,Litigation 3 Status for company
litigation_type3,Litigation 3 Type for company
litigation_amount3,Litigation 3 Amount for company
litigationInfo_status1,Litigation 1 Status for shareholder
litigationInfo_type1,Litigation 1 Type for shareholder
litigationInfo_amount1,Litigation 1 Amount for shareholder
litigationInfo_status2,Litigation 2 Status for shareholder
litigationInfo_type2,Litigation 2 Type for shareholder
litigationInfo_amount2,Litigation 2 Amount for shareholder
litigationInfo_status3,Litigation 3 Status for shareholder
litigationInfo_type3,Litigation 3 Type for shareholder
litigationInfo_amount3,Litigation 3 Amount for shareholder
litigationInfo_status4,Litigation 4 Status for shareholder
litigationInfo_type4,Litigation 4 Type for shareholder
litigationInfo_amount4,Litigation 4 Amount for shareholder
litigationInfo_status5,Litigation 5 Status for shareholder
litigationInfo_type5,Litigation 5 Type for shareholder
litigationInfo_amount5,Litigation 5 Amount for shareholder
litigationInfo_status6,Litigation 6 Status for shareholder
litigationInfo_type6,Litigation 6 Type for shareholder
litigationInfo_amount6,Litigation 6 Amount for shareholder
litigationInfo_status7,Litigation 7 Status for shareholder
litigationInfo_type7,Litigation 7 Type for shareholder
litigationInfo_amount7,Litigation 7 Amount for shareholder
litigationInfo_status8,Litigation 8 Status for shareholder
litigationInfo_type8,Litigation 8 Type for shareholder
litigationInfo_amount8,Litigation 8 Amount for shareholder
litigationInfo_status9,Litigation 9 Status for shareholder
litigationInfo_type9,Litigation 9 Type for shareholder
litigationInfo_amount9,Litigation 9 Amount for shareholder
litigationInfo_status10,Litigation 10 Status for shareholder
litigationInfo_type10,Litigation 10 Type for shareholder
litigationInfo_amount10,Litigation 10 Amount for shareholder
facilityType_user_bil1,Off Us Exposure Facility Type 1
limit_user_bil1,Off Us Exposure Limit 1
monthlyInstallmentAmount_user_bil1,Off Us Exposure Monthly Installment Amount 1
outstandingAmount_user_bil1,Off Us Exposure Ouststanding Amount 1
facilityType_user_bil2,Off Us Exposure Facility Type 2
limit_user_bil2,Off Us Exposure Limit 2
monthlyInstallmentAmount_user_bil2,Off Us Exposure Monthly Installment Amount 2
outstandingAmount_user_bil2,Off Us Exposure Ouststanding Amount 2
facilityType_user_bil3,Off Us Exposure Facility Type 3
limit_user_bil3,Off Us Exposure Limit 3
monthlyInstallmentAmount_user_bil3,Off Us Exposure Monthly Installment Amount 3
outstandingAmount_user_bil3,Off Us Exposure Ouststanding Amount 3
facilityType_user_bil4,Off Us Exposure Facility Type 4
limit_user_bil4,Off Us Exposure Limit 4
monthlyInstallmentAmount_user_bil4,Off Us Exposure Monthly Installment Amount 4
outstandingAmount_user_bil4,Off Us Exposure Ouststanding Amount 4
facilityType_user_bil5,Off Us Exposure Facility Type 5
limit_user_bil5,Off Us Exposure Limit 5
monthlyInstallmentAmount_user_bil5,Off Us Exposure Monthly Installment Amount 5
outstandingAmount_user_bil5,Off Us Exposure Ouststanding Amount 5
facilityType_user_bil6,Off Us Exposure Facility Type 6
limit_user_bil6,Off Us Exposure Limit 6
monthlyInstallmentAmount_user_bil6,Off Us Exposure Monthly Installment Amount 6
outstandingAmount_user_bil6,Off Us Exposure Ouststanding Amount 6
facilityType_user_bil7,Off Us Exposure Facility Type 7
limit_user_bil7,Off Us Exposure Limit 7
monthlyInstallmentAmount_user_bil7,Off Us Exposure Monthly Installment Amount 7
outstandingAmount_user_bil7,Off Us Exposure Ouststanding Amount 7
facilityType_user_bil8,Off Us Exposure Facility Type 8
limit_user_bil8,Off Us Exposure Limit 8
monthlyInstallmentAmount_user_bil8,Off Us Exposure Monthly Installment Amount 8
outstandingAmount_user_bil8,Off Us Exposure Ouststanding Amount 8
facilityType_user_bil9,Off Us Exposure Facility Type 9
limit_user_bil9,Off Us Exposure Limit 9
monthlyInstallmentAmount_user_bil9,Off Us Exposure Monthly Installment Amount 9
outstandingAmount_user_bil9,Off Us Exposure Ouststanding Amount 9
phoneDiscussionIn,Phone Discussion Started
doi,Date of Incorporation
updatednewloanamount_condition,Final accepted Loan Amount
isSoftReject,Whether case has been soft rejected
loan_rls_bil,Outstanding Loan Balance in RLS
emiRls_rls_bil,Outstanding Loan EMI in RLS
monthlyInstallmentbalance_cccis_bil1,CCCIS Monthly Installment Balance Guarantor 1
monthlyInstallmentbalance_cccis_bil2,CCCIS Monthly Installment Balance Guarantor 2
monthlyInstallmentbalance_cccis_bil3,CCCIS Monthly Installment Balance Guarantor 3
monthlyInstallmentbalance_cccis_bil4,CCCIS Monthly Installment Balance Guarantor 4
monthlyInstallmentbalance_cccis_bil5,CCCIS Monthly Installment Balance Guarantor 5
bilemi_rls_bil,Exisitng BIL EMI
wclemi_rls_bil,Exisitng WCL EMI
approvalStatus,Final decision whether approved or rejected
salesName,Sales person Name
otherIsic_system_bil,Other ISIC Code for customer
name,Analyst Name
approverName,Approver Name
outwardChequereturnnumber_Instabase_Bil,Outward returned cheque counts
BilScoringNTB,Application Score NTB
BILScoringETB,Application Score ETB
isBilPass33,Bankruptcy Flag
monthlyBusinessIncome_user_bil,Business Income
nameOfGuarantor_myinfo_bil1,Guarantor 1 Name
addLine1_myinfo_bil1,Guarantor 1 Address line 1
addLine2_myinfo_bil1,Guarantor 1 Address line 2
addLine3_myinfo_bil1,Guarantor 1 Address line 3
postalCodeGua_myinfo_bil1,Guarantor 1 Address postal code
country_myinfo_bil1,Guarantor 1 Country
genderOfGuarantor_myinfo_bil1,Guarantor 1 Gender
nationality_myinfo_bil1,Guarantor 1 Nationality
nric_myinfo_bil1,Guarantor 1 Nric
positionguaranor_dpinfo_bil1,Guarantor 1 Position
yearsInCompanyGua_dpinfo_bil1,Guarantor 1 Years in Company
passportNo_system_bil1,Guarantor 1 Passport
dobOfGuarantor_myinfo_bil1,Guarantor 1 Dob
emailAddressGuarantor_myinfo_bil1,Guarantor 1 Email
obligationValue,Company and Guarantor Debt
highestLevelOfEducationGua_myinfo_bil1,Guarantor 1 Highest Education Lelve
maritialStatusOfGua_myinfo_bil1,Guarantor 1 Maritial Status
applicantMobileNumber1,Guarantor 1 Mobile
countryBirth_myinfo_bil1,Guarantor 1 Country of Birth
nameOfGuarantor_myinfo_bil2,Guarantor 2 Name
addLine1_myinfo_bil2,Guarantor 2 Address Line 1
addLine2_myinfo_bil2,Guarantor 2 Address Line 2
addLine3_myinfo_bil2,Guarantor 2 Address Line 3
postalCodeGua_myinfo_bil2,Guarantor 2 Address Postal Code
country_myinfo_bil2,Guarantor 2 Country
genderOfGuarantor_myinfo_bil2,Guarantor 2 Gender
nationality_myinfo_bil2,Guarantor 2 Nationality
nric_myinfo_bil2,Guarantor 2 Nric
positionguaranor_dpinfo_bil2,Guarantor 2 Position
yearsInCompanyGua_dpinfo_bil2,Guarantor 2 Years in Company
passportNo_system_bil2,Guarantor 2 Passport
dobOfGuarantor_myinfo_bil2,Guarantor 2 Dob
emailAddressGuarantor_myinfo_bil2,Guarantor 2 Email
Status_across_role,Status of Loan Application
highestLevelOfEducationGua_myinfo_bil2,Guarantor 2 Highest Education Lelve
maritialStatusOfGua_myinfo_bil2,Guarantor 2 Maritial Status
applicantMobileNumber2,Guarantor 2 Mobile
countryBirth_myinfo_bil2,Guarantor 2 Country of Birth
nameOfGuarantor_myinfo_bil3,Guarantor 3 Name
addLine1_myinfo_bil3,Guarantor 3 Address Line 1
addLine2_myinfo_bil3,Guarantor 3 Address Line 2
addLine3_myinfo_bil3,Guarantor 3 Address Line 3
postalCodeGua_myinfo_bil3,Guarantor 3 Address Postal Code
country_myinfo_bil3,Guarantor 3 Country
genderOfGuarantor_myinfo_bil3,Guarantor 3 Gender
nationality_myinfo_bil3,Guarantor 3 Nationality
nric_myinfo_bil3,Guarantor 3 Nric
positionguaranor_dpinfo_bil3,Guarantor 3 Position
yearsInCompanyGua_dpinfo_bil3,Guarantor 3 Years in Company
passportNo_system_bil3,Guarantor 3 Passport
dobOfGuarantor_myinfo_bil3,Guarantor 3 Dob
emailAddressGuarantor_myinfo_bil3,Guarantor 3 Email
isBilPass26,Bad Debt Flag for Guarantor
highestLevelOfEducationGua_myinfo_bil3,Guarantor 3 Highest Education Lelve
maritialStatusOfGua_myinfo_bil3,Guarantor 3 Maritial Status
applicantMobileNumber3,Guarantor 3 Mobile
countryBirth_myinfo_bil3,Guarantor 3 Country of Birth
nameOfGuarantor_myinfo_bil4,Guarantor 4 Name
addLine1_myinfo_bil4,Guarantor 4 Address Line 1
addLine2_myinfo_bil4,Guarantor 4 Address Line 2
addLine3_myinfo_bil4,Guarantor 4 Address Line 3
postalCodeGua_myinfo_bil4,Guarantor 4 Address Postal Code
country_myinfo_bil4,Guarantor 4 Country
genderOfGuarantor_myinfo_bil4,Guarantor 4 Gender
nationality_myinfo_bil4,Guarantor 4 Nationality
nric_myinfo_bil4,Guarantor 4 Nric
positionguaranor_dpinfo_bil4,Guarantor 4 Position
yearsInCompanyGua_dpinfo_bil4,Guarantor 4 Years in Company
passportNo_system_bil4,Guarantor 4 Passport
dobOfGuarantor_myinfo_bil4,Guarantor 4 Dob
emailAddressGuarantor_myinfo_bil4,Guarantor 4 Email
phoneDiscussionCompleted_timestamp,Phone Discussion Completed
highestLevelOfEducationGua_myinfo_bil4,Guarantor 4 Highest Education Lelve
maritialStatusOfGua_myinfo_bil4,Guarantor 4 Maritial Status
applicantMobileNumber4,Guarantor 4 Mobile
countryBirth_myinfo_bil4,Guarantor 4 Country of Birth
nameOfGuarantor_myinfo_bil5,Guarantor 5 Name
addLine1_myinfo_bil5,Guarantor 5 Address Line 1
addLine2_myinfo_bil5,Guarantor 5 Address Line 2
addLine3_myinfo_bil5,Guarantor 5 Address Line 3
postalCodeGua_myinfo_bil5,Guarantor 5 Address Postal Code
country_myinfo_bil5,Guarantor 5 Country
genderOfGuarantor_myinfo_bil5,Guarantor 5 Gender
nationality_myinfo_bil5,Guarantor 5 Nationality
nric_myinfo_bil5,Guarantor 5 Nric
positionguaranor_dpinfo_bil5,Guarantor 5 Position
yearsInCompanyGua_dpinfo_bil5,Guarantor 5 Years in Company
passportNo_system_bil5,Guarantor 5 Passport
dobOfGuarantor_myinfo_bil5,Guarantor 5 Dob
emailAddressGuarantor_myinfo_bil5,Guarantor 5 Email
stage_date_bil,Date for stage of the case
highestLevelOfEducationGua_myinfo_bil5,Guarantor 5 Highest Education Lelve
maritialStatusOfGua_myinfo_bil5,Guarantor 5 Maritial Status
applicantMobileNumber5,Guarantor 5 Mobile
countryBirth_myinfo_bil5,Guarantor 5 Country of Birth
delqOffUsUnsecMob1,DELQ_OFFUS_UNSEC_MOB_1
dti1,dti_1
numCashAdvyL6m1,SC_0302_NUM_CASHADVY_L6M_1
numEnquiriesCcL3m1,NUM_ENQUIRIES_CC_L3M_1
numEnquiriesPlL3m1,NUM_ENQUIRIES_PL_L3M_1
numFullPymtyL3m1,SC_0401_NUM_FULLPYMTY_L3M_1
numFullPymtyL6m1,SC_0402_NUM_FULLPYMTY_L6M_1
numOpenHd1,NUM_OPEN_HD_1
numOpenHl1,NUM_OPEN_HL_1
numOpenMl1,NUM_OPEN_ML_1
numOpenPr1,NUM_OPEN_PR_1
numOpenUnsecPl1,NUM_OPEN_UNSEC_PL_1
numPartPayCcL6m1,NUM_PARTPAY_CC_L6M_1
numPartPayCcL3m1,NUM_PARTPAY_CC_L3M_1
totOpenMort1,TOT_OPEN_MORT_1
totOpenMv1,TOT_OPEN_MV_1
worstAgingL6mCc1,WORST_AGING_L6M_CC_1
worstAgingL6mOd1,WORST_AGING_L6M_OD_1
worstAgingL6mOt1,WORST_AGING_L6M_OT_1
worstAgingL6mPl1,WORST_AGING_L6M_PL_1
restructuredStatus1,restructuredStatus_1
newEnquiries1,newEnquiries_1
bankruptcyDischargeDate1,Bankruptcy discharge date_1
badDebtSettlementDate1,Bad debt settlement flag_1
dti2,dti_2
numCashAdvyL6m2,SC_0302_NUM_CASHADVY_L6M_2
numEnquiriesCcL3m2,NUM_ENQUIRIES_CC_L3M_2
numEnquiriesPlL3m2,NUM_ENQUIRIES_PL_L3M_2
numFullPymtyL3m2,SC_0401_NUM_FULLPYMTY_L3M_2
numFullPymtyL6m2,SC_0402_NUM_FULLPYMTY_L6M_2
numOpenHd2,NUM_OPEN_HD_2
numOpenHl2,NUM_OPEN_HL_2
numOpenMl2,NUM_OPEN_ML_2
numOpenPr2,NUM_OPEN_PR_2
numOpenUnsecPl2,NUM_OPEN_UNSEC_PL_2
numPartPayCcL6m2,NUM_PARTPAY_CC_L6M_2
numPartPayCcL3m2,NUM_PARTPAY_CC_L3M_2
totOpenMort2,TOT_OPEN_MORT_2
totOpenMv2,TOT_OPEN_MV_2
worstAgingL6mCc2,WORST_AGING_L6M_CC_2
worstAgingL6mOd2,WORST_AGING_L6M_OD_2
worstAgingL6mOt2,WORST_AGING_L6M_OT_2
worstAgingL6mPl2,WORST_AGING_L6M_PL_2
restructuredStatus2,restructuredStatus_2
newEnquiries2,newEnquiries_2
bankruptcyDischargeDate2,Bankruptcy discharge date_2
badDebtSettlementDate2,Bad debt settlement flag_2
delqOffUsUnsecMob2,DELQ_OFFUS_UNSEC_MOB_2
dti3,dti_3
numCashAdvyL6m3,SC_0302_NUM_CASHADVY_L6M_3
numEnquiriesCcL3m3,NUM_ENQUIRIES_CC_L3M_3
numEnquiriesPlL3m3,NUM_ENQUIRIES_PL_L3M_3
numFullPymtyL3m3,SC_0401_NUM_FULLPYMTY_L3M_3
numFullPymtyL6m3,SC_0402_NUM_FULLPYMTY_L6M_3
numOpenHd3,NUM_OPEN_HD_3
numOpenHl3,NUM_OPEN_HL_3
numOpenMl3,NUM_OPEN_ML_3
numOpenPr3,NUM_OPEN_PR_3
numOpenUnsecPl3,NUM_OPEN_UNSEC_PL_3
numPartPayCcL6m3,NUM_PARTPAY_CC_L6M_3
numPartPayCcL3m3,NUM_PARTPAY_CC_L3M_3
totOpenMort3,TOT_OPEN_MORT_3
totOpenMv3,TOT_OPEN_MV_3
worstAgingL6mCc3,WORST_AGING_L6M_CC_3
worstAgingL6mOd3,WORST_AGING_L6M_OD_3
worstAgingL6mOt3,WORST_AGING_L6M_OT_3
worstAgingL6mPl3,WORST_AGING_L6M_PL_3
restructuredStatus3,restructuredStatus_3
newEnquiries3,newEnquiries_3
bankruptcyDischargeDate3,Bankruptcy discharge date_3
badDebtSettlementDate3,Bad debt settlement flag_3
delqOffUsUnsecMob3,DELQ_OFFUS_UNSEC_MOB_3
dti4,dti_4
numCashAdvyL6m4,SC_0302_NUM_CASHADVY_L6M_4
numEnquiriesCcL3m4,NUM_ENQUIRIES_CC_L3M_4
numEnquiriesPlL3m4,NUM_ENQUIRIES_PL_L3M_4
numFullPymtyL3m4,SC_0401_NUM_FULLPYMTY_L3M_4
numFullPymtyL6m4,SC_0402_NUM_FULLPYMTY_L6M_4
numOpenHd4,NUM_OPEN_HD_4
numOpenHl4,NUM_OPEN_HL_4
numOpenMl4,NUM_OPEN_ML_4
numOpenPr4,NUM_OPEN_PR_4
numOpenUnsecPl4,NUM_OPEN_UNSEC_PL_4
numPartPayCcL6m4,NUM_PARTPAY_CC_L6M_4
numPartPayCcL3m4,NUM_PARTPAY_CC_L3M_4
totOpenMort4,TOT_OPEN_MORT_4
totOpenMv4,TOT_OPEN_MV_4
worstAgingL6mCc4,WORST_AGING_L6M_CC_4
worstAgingL6mOd4,WORST_AGING_L6M_OD_4
worstAgingL6mOt4,WORST_AGING_L6M_OT_4
worstAgingL6mPl4,WORST_AGING_L6M_PL_4
restructuredStatus4,restructuredStatus_4
newEnquiries4,newEnquiries_4
bankruptcyDischargeDate4,Bankruptcy discharge date_4
badDebtSettlementDate4,Bad debt settlement flag_4
delqOffUsUnsecMob4,DELQ_OFFUS_UNSEC_MOB_4
dti5,dti_5
numCashAdvyL6m5,SC_0302_NUM_CASHADVY_L6M_5
numEnquiriesCcL3m5,NUM_ENQUIRIES_CC_L3M_5
numEnquiriesPlL3m5,NUM_ENQUIRIES_PL_L3M_5
numFullPymtyL3m5,SC_0401_NUM_FULLPYMTY_L3M_5
numFullPymtyL6m5,SC_0402_NUM_FULLPYMTY_L6M_5
numOpenHd5,NUM_OPEN_HD_5
numOpenHl5,NUM_OPEN_HL_5
numOpenMl5,NUM_OPEN_ML_5
numOpenPr5,NUM_OPEN_PR_5
numOpenUnsecPl5,NUM_OPEN_UNSEC_PL_5
numPartPayCcL6m5,NUM_PARTPAY_CC_L6M_5
numPartPayCcL3m5,NUM_PARTPAY_CC_L3M_5
totOpenMort5,TOT_OPEN_MORT_5
totOpenMv5,TOT_OPEN_MV_5
worstAgingL6mCc5,WORST_AGING_L6M_CC_5
worstAgingL6mOd5,WORST_AGING_L6M_OD_5
worstAgingL6mOt5,WORST_AGING_L6M_OT_5
worstAgingL6mPl5,WORST_AGING_L6M_PL_5
restructuredStatus5,restructuredStatus_5
newEnquiries5,newEnquiries_5
bankruptcyDischargeDate5,Bankruptcy discharge date_5
badDebtSettlementDate5,Bad debt settlement flag_5
delqOffUsUnsecMob5,DELQ_OFFUS_UNSEC_MOB_5
cddQ1_user_bil,Sanction Q1
cddQ2_user_bil,Sanction Q2
cddQ3_user_bil,Sanction Q3
cddQ4_user_bil,Sanction Q4
cddQ5_user_bil,Prohibition Q1
cddQ6_user_bil,Prohibition Q2
cddQ7_user_bil,Prohibition Q3
cddQ8_user_bil,Nominee Q1
cddQ9_user_bil,Nominee Q2
name1,directorName_1
nric1,directorNric_1
joiningDate1,directorDOA_1
name2,directorName_2
nric2,directorNric_2
joiningDate2,directorDOA_2
name3,directorName_3
nric3,directorNric_3
joiningDate3,directorDOA_3
name4,directorName_4
nric4,directorNric_4
joiningDate4,directorDOA_4
name5,directorName_5
nric5,directorNric_5
joiningDate5,directorDOA_5
enquiry_number_bil1,ENQUIRY_NUMBER_1
rsp_enquiry_ref1,RSP_ENQUIRY_REF_1
enquiry_number_bil2,ENQUIRY_NUMBER_2
rsp_enquiry_ref2,RSP_ENQUIRY_REF_2
enquiry_number_bil3,ENQUIRY_NUMBER_3
rsp_enquiry_ref3,RSP_ENQUIRY_REF_3
enquiry_number_bil4,ENQUIRY_NUMBER_4
rsp_enquiry_ref4,RSP_ENQUIRY_REF_4
enquiry_number_bil5,ENQUIRY_NUMBER_5
rsp_enquiry_ref5,RSP_ENQUIRY_REF_5
riskGrade1,riskGrade_1
riskGrade2,riskGrade_2
riskGrade3,riskGrade_3
riskGrade4,riskGrade_4
riskGrade5,riskGrade_5
isBilPassLatestDeliquency,isBilPassLatestDeliquency
cptIvprMaxUnsecUtil,cptIvprMaxUnsecUtil
haircut,Haircut Ratio
sto_haircut,STO after Haircut
liquidityRatio,LCR Ratio
lcr,Calculated LCR
isNstp_system_bil,Whether customer is nstp or not
day_end_balance_avg,Avg day end balance
defermentPeriod,Deferment Period
outstanding_tbl_amount,Outstanding loan amount for tbl
tblemi_rls_bil,Outstanding emi for tbl
outstanding_wcl_amount_7105,Outstanding loan amount for wcl 7105
outstanding_wcl_amount_7108,Outstanding loan amount for wcl 7108
outstanding_bil_amount,Oustanding loan amount for BIL
Borrowing entity Risk code1,Borrowing entity Risk code 1
Borrowing entity Risk code2,Borrowing entity Risk code 2
Borrowing entity Risk code3,Borrowing entity Risk code 3
Borrowing entity Risk code4,Borrowing entity Risk code 4
Borrowing entity Risk code5,Borrowing entity Risk code 5
Relationship Number of Guarantor1_RiskCode1,Guarantor 1 Risk code 1
Relationship Number of Guarantor1_RiskCode2,Guarantor 1 Risk code 2
Relationship Number of Guarantor1_RiskCode3,Guarantor 1 Risk code 3
Relationship Number of Guarantor1_RiskCode4,Guarantor 1 Risk code 4
Relationship Number of Guarantor1_RiskCode5,Guarantor 1 Risk code 5
Relationship Number of Guarantor2_RiskCode1,Guarantor 2 Risk code 1
Relationship Number of Guarantor2_RiskCode2,Guarantor 2 Risk code 2
Relationship Number of Guarantor2_RiskCode3,Guarantor 2 Risk code 3
Relationship Number of Guarantor2_RiskCode4,Guarantor 2 Risk code 4
Relationship Number of Guarantor2_RiskCode5,Guarantor 2 Risk code 5
Relationship Number of Guarantor3_RiskCode1,Guarantor 3 Risk code 1
Relationship Number of Guarantor3_RiskCode2,Guarantor 3 Risk code 2
Relationship Number of Guarantor3_RiskCode3,Guarantor 3 Risk code 3
Relationship Number of Guarantor3_RiskCode4,Guarantor 3 Risk code 4
Relationship Number of Guarantor3_RiskCode5,Guarantor 3 Risk code 5
Relationship Number of Guarantor4_RiskCode1,Guarantor 4 Risk code 1
Relationship Number of Guarantor4_RiskCode2,Guarantor 4 Risk code 2
Relationship Number of Guarantor4_RiskCode3,Guarantor 4 Risk code 3
Relationship Number of Guarantor4_RiskCode4,Guarantor 4 Risk code 4
Relationship Number of Guarantor4_RiskCode5,Guarantor 4 Risk code 5
Relationship Number of Guarantor5_RiskCode1,Guarantor 5 Risk code 1
Relationship Number of Guarantor5_RiskCode2,Guarantor 5 Risk code 2
Relationship Number of Guarantor5_RiskCode3,Guarantor 5 Risk code 3
Relationship Number of Guarantor5_RiskCode4,Guarantor 5 Risk code 4
Relationship Number of Guarantor5_RiskCode5,Guarantor 5 Risk code 5
UEN of Related party1_RiskCode1,Related Party 1 Risk code 1
UEN of Related party1_RiskCode2,Related Party 1 Risk code 2
UEN of Related party1_RiskCode3,Related Party 1 Risk code 3
UEN of Related party1_RiskCode4,Related Party 1 Risk code 4
UEN of Related party1_RiskCode5,Related Party 1 Risk code 5
UEN of Related party2_RiskCode1,Related Party 2 Risk code 1
UEN of Related party2_RiskCode2,Related Party 2 Risk code 2
UEN of Related party2_RiskCode3,Related Party 2 Risk code 3
UEN of Related party2_RiskCode4,Related Party 2 Risk code 4
UEN of Related party2_RiskCode5,Related Party 2 Risk code 5
UEN of Related party3_RiskCode1,Related Party 2 Risk code 1
UEN of Related party3_RiskCode2,Related Party 3 Risk code 2
UEN of Related party3_RiskCode3,Related Party 3 Risk code 3
UEN of Related party3_RiskCode4,Related Party 3 Risk code 4
UEN of Related party3_RiskCode5,Related Party 3 Risk code 5
UEN of Related party4_RiskCode1,Related Party 4 Risk code 1
UEN of Related party4_RiskCode2,Related Party 4 Risk code 2
UEN of Related party4_RiskCode3,Related Party 4 Risk code 3
UEN of Related party4_RiskCode4,Related Party 4 Risk code 4
UEN of Related party4_RiskCode5,Related Party 4 Risk code 5
UEN of Related party5_RiskCode1,Related Party 5 Risk code 1
UEN of Related party5_RiskCode2,Related Party 5 Risk code 2
UEN of Related party5_RiskCode3,Related Party 5 Risk code 3
UEN of Related party5_RiskCode4,Related Party 5 Risk code 4
UEN of Related party5_RiskCode5,Related Party 5 Risk code 5
UEN of Related party6_RiskCode1,Related Party 6 Risk code 1
UEN of Related party6_RiskCode2,Related Party 6 Risk code 2
UEN of Related party6_RiskCode3,Related Party 6 Risk code 3
UEN of Related party6_RiskCode4,Related Party 6 Risk code 4
UEN of Related party6_RiskCode5,Related Party 6 Risk code 5
UEN of Related party7_RiskCode1,Related Party 7 Risk code 1
UEN of Related party7_RiskCode2,Related Party 7 Risk code 2
UEN of Related party7_RiskCode3,Related Party 7 Risk code 3
UEN of Related party7_RiskCode4,Related Party 7 Risk code 4
UEN of Related party7_RiskCode5,Related Party 7 Risk code 5
UEN of Related party8_RiskCode1,Related Party 8 Risk code 1
UEN of Related party8_RiskCode2,Related Party 8 Risk code 2
UEN of Related party8_RiskCode3,Related Party 8 Risk code 3
UEN of Related party8_RiskCode4,Related Party 8 Risk code 4
UEN of Related party8_RiskCode5,Related Party 8 Risk code 5
UEN of Related party9_RiskCode1,Related Party 9 Risk code 1
UEN of Related party9_RiskCode2,Related Party 9 Risk code 2
UEN of Related party9_RiskCode3,Related Party 9 Risk code 3
UEN of Related party9_RiskCode4,Related Party 9 Risk code 4
UEN of Related party9_RiskCode5,Related Party 9 Risk code 5
UEN of Related party10_RiskCode1,Related Party 10 Risk code 1
UEN of Related party10_RiskCode2,Related Party 10 Risk code 2
UEN of Related party10_RiskCode3,Related Party 10 Risk code 3
UEN of Related party10_RiskCode4,Related Party 10 Risk code 4
UEN of Related party10_RiskCode5,Related Party 10 Risk code 5
Interest_Rate_TBL,System recommended Rate of Interest for TBL
updatedloaninterestTbl,Final accepted Rate of Interest for TBL
scbLoanApplicationNumber_rls_TBL,Account number for TBL
topUpFlagTbl_system_bil,Top Up Flag TBL Yes or No
userType_sys_bil_condition,Journey Type